{
  "emails": [
    {
      "id": 1,
      "from": "premier@mailaddress.com",
      "subject": "How To Take The Headache Out Of TECHNOLOGY",
      "body": "<p>Pellentesque habitant morbi tristique senectus et netus et malesuada fames ac turpis egestas. Vestibulum tortor quam, feugiat vitae, ultricies eget, tempor sit amet, ante. Donec eu libero sit amet quam egestas semper. Aenean ultricies mi vitae est. Mauris placerat eleifend leo.</p>",
      "sentAt": "2020-03-27T18:25:43.511Z",
      "archived": false,
      "read": true,
      "archive": false
    },
    {
      "id": 2,
      "from": "second@@mailaddress.com",
      "subject": "The Secret of VOLCANO",
      "body": "<ul><li>Morbi in sem quis dui placerat ornare. Pellentesque odio nisi, euismod in, pharetra a, ultricies in, diam. Sed arcu. Cras consequat.</li><li>Praesent dapibus, neque id cursus faucibus, tortor neque egestas augue, eu vulputate magna eros eu erat. Aliquam erat volutpat. Nam dui mi, tincidunt quis, accumsan porttitor, facilisis luctus, metus.</li><li>Phasellus ultrices nulla quis nibh. Quisque a lectus. Donec consectetuer ligula vulputate sem tristique cursus. Nam nulla quam, gravida non, commodo a, sodales sit amet, nisi.</li><li>Pellentesque fermentum dolor. Aliquam quam lectus, facilisis auctor, ultrices ut, elementum vulputate, nunc.</li></ul>",
      "sentAt": "2020-05-20T18:25:43.511Z",
      "archived": false,
      "read": true,
      "archive": false
    },
    {
      "id": 3,
      "from": "troisieme@mailaddress.com",
      "subject": "World Class Tools Make QUEEN Push Button Easy",
      "body": "<p>Pellentesque habitant morbi tristique senectus et netus et malesuada fames ac turpis egestas.</p>",
      "sentAt": "2020-03-18T18:25:43.511Z",
      "archived": false,
      "read": false,
      "archive": false
    },
    {
      "id": 4,
      "from": "quatrieme@mailaddress.com",
      "subject": "The Secret of VOLCANO",
      "body": "<dl><dt>Definition list</dt><dd>Consectetur adipisicing elit, sed do eiusmod tempor incididunt ut labore et dolore magnaaliqua. Ut enim ad minim veniam, quis nostrud exercitation ullamco laboris nisi ut aliquip ex eacommodo consequat.</dd><dt>Lorem ipsum dolor sit amet</dt><dd>Consectetur adipisicing elit, sed do eiusmod tempor incididunt ut labore et dolore magnaaliqua. Ut enim ad minim veniam, quis nostrud exercitation ullamco laboris nisi ut aliquip ex eacommodo consequat.</dd></dl>",
      "sentAt": "2020-03-24T18:25:43.511Z",
      "archived": false,
      "read": false,
      "archive": false
    },
    {
      "id": 5,
      "from": "cinquieme@mailaddress.com",
      "subject": "10 Funny PLANET Quotes",
      "body": "<ol><li>Lorem ipsum dolor sit amet, consectetuer adipiscing elit.</li><li>Aliquam tincidunt mauris eu risus.</li><li>Vestibulum auctor dapibus neque.</li></ol>",
      "sentAt": "2020-03-24T18:25:43.511Z",
      "archived": false,
      "read": true,
      "archive": false
    }
  ]
}